115.00364567240364 -0.0001860596806399339 -0.00037211936127985474 33.60843752864725
89.887381396955 47.83439967794196 47.745275524495746 124.9332287727978
3.800980434502094e-07
1.7276565754488177e-06
